----------------------------------------------------
Job file:        /scratch/project/dd-21-16/ex1_jakub/slope120_s8_5.bin
Job ordering:    nd
Job processes:   1
Job solver:      petsc
Job solver type: cholesky
----------------------------------------------------
Loaded modules:

Currently Loaded Modules:
  1) GCCcore/10.2.0
  2) zlib/1.2.11-GCCcore-10.2.0
  3) binutils/2.35-GCCcore-10.2.0
  4) GCC/10.2.0
  5) numactl/2.0.13-GCCcore-10.2.0
  6) XZ/5.2.5-GCCcore-10.2.0
  7) libxml2/2.9.10-GCCcore-10.2.0
  8) libpciaccess/0.16-GCCcore-10.2.0
  9) hwloc/2.2.0-GCCcore-10.2.0
 10) UCX/1.9.0-GCCcore-10.2.0
 11) libfabric/1.11.0-GCCcore-10.2.0
 12) libevent/2.1.12-GCCcore-10.2.0
 13) PMIx/3.1.5-GCCcore-10.2.0
 14) OpenMPI/4.0.5-GCC-10.2.0
 15) OpenBLAS/0.3.12-GCC-10.2.0
 16) gompi/2020b
 17) FFTW/3.3.8-gompi-2020b
 18) ScaLAPACK/2.1.0-gompi-2020b
 19) foss/2020b
 20) bzip2/1.0.8-GCCcore-10.2.0
 21) ncurses/6.2-GCCcore-10.2.0
 22) libreadline/8.0-GCCcore-10.2.0
 23) Tcl/8.6.10-GCCcore-10.2.0
 24) SQLite/3.33.0-GCCcore-10.2.0
 25) GMP/6.2.0-GCCcore-10.2.0
 26) libffi/3.3-GCCcore-10.2.0
 27) Python/3.8.6-GCCcore-10.2.0
 28) pybind11/2.6.0-GCCcore-10.2.0
 29) SciPy-bundle/2020.11-foss-2020b
 30) Boost/1.74.0-GCC-10.2.0
 31) METIS/5.1.0-GCCcore-10.2.0
 32) SCOTCH/6.1.0-gompi-2020b
 33) MUMPS/5.3.5-foss-2020b-metis
 34) MPFR/4.1.0-GCCcore-10.2.0
 35) SuiteSparse/5.8.1-foss-2020b-METIS-5.1.0
 36) Hypre/2.20.0-foss-2020b
 37) PETSc/3.14.4-foss-2020b-download-superlu
 38) SuperLU/5.2.2-foss-2020b
----------------------------------------------------
KSP Object: 1 MPI processes
  type: gmres
    restart=30, using Classical (unmodified) Gram-Schmidt Orthogonalization with no iterative refinement
    happy breakdown tolerance 1e-30
  maximum iterations=10000, initial guess is zero
  tolerances:  relative=1e-05, absolute=1e-50, divergence=10000.
  left preconditioning
  using PRECONDITIONED norm type for convergence test
PC Object: 1 MPI processes
  type: cholesky
    out-of-place factorization
    tolerance for zero pivot 2.22045e-14
    matrix ordering: nd
    factor fill ratio given 5., needed 6.16065
      Factored matrix follows:
        Mat Object: 1 MPI processes
          type: seqsbaij
          rows=4030, cols=4030
          package used to perform factorization: petsc
          total: nonzeros=181425, allocated nonzeros=181425
              block size is 1
  linear system matrix = precond matrix:
  Mat Object: 1 MPI processes
    type: seqaij
    rows=4030, cols=4030
    total: nonzeros=54868, allocated nonzeros=54868
    total number of mallocs used during MatSetValues calls=0
      using I-node routines: found 2015 nodes, limit used is 5
************************************************************************************************************************
***             WIDEN YOUR WINDOW TO 120 CHARACTERS.  Use 'enscript -r -fCourier9' to print this document            ***
************************************************************************************************************************

---------------------------------------------- PETSc Performance Summary: ----------------------------------------------

./ex1 on a  named cn18.barbora.it4i.cz with 1 processor, by hrb33u Mon Sep 13 23:57:43 2021
Using Petsc Release Version 3.14.4, Feb 03, 2021 

                         Max       Max/Min     Avg       Total
Time (sec):           1.312e-01     1.000   1.312e-01
Objects:              2.000e+01     1.000   2.000e+01
Flop:                 1.589e+08     1.000   1.589e+08  1.589e+08
Flop/sec:             1.211e+09     1.000   1.211e+09  1.211e+09
MPI Messages:         0.000e+00     0.000   0.000e+00  0.000e+00
MPI Message Lengths:  0.000e+00     0.000   0.000e+00  0.000e+00
MPI Reductions:       0.000e+00     0.000

Flop counting convention: 1 flop = 1 real number operation of type (multiply/divide/add/subtract)
                            e.g., VecAXPY() for real vectors of length N --> 2N flop
                            and VecAXPY() for complex vectors of length N --> 8N flop

Summary of Stages:   ----- Time ------  ----- Flop ------  --- Messages ---  -- Message Lengths --  -- Reductions --
                        Avg     %Total     Avg     %Total    Count   %Total     Avg         %Total    Count   %Total
 0:      Main Stage: 1.3121e-01 100.0%  1.5894e+08 100.0%  0.000e+00   0.0%  0.000e+00        0.0%  0.000e+00   0.0%

------------------------------------------------------------------------------------------------------------------------
See the 'Profiling' chapter of the users' manual for details on interpreting output.
Phase summary info:
   Count: number of times phase was executed
   Time and Flop: Max - maximum over all processors
                  Ratio - ratio of maximum to minimum over all processors
   Mess: number of messages sent
   AvgLen: average message length (bytes)
   Reduct: number of global reductions
   Global: entire computation
   Stage: stages of a computation. Set stages with PetscLogStagePush() and PetscLogStagePop().
      %T - percent time in this phase         %F - percent flop in this phase
      %M - percent messages in this phase     %L - percent message lengths in this phase
      %R - percent reductions in this phase
   Total Mflop/s: 10e-6 * (sum of flop over all processors)/(max time over all processors)
------------------------------------------------------------------------------------------------------------------------
Event                Count      Time (sec)     Flop                              --- Global ---  --- Stage ----  Total
                   Max Ratio  Max     Ratio   Max  Ratio  Mess   AvgLen  Reduct  %T %F %M %L %R  %T %F %M %L %R Mflop/s
------------------------------------------------------------------------------------------------------------------------

--- Event Stage 0: Main Stage

MatMult              100 1.0 5.9307e-03 1.0 1.06e+07 1.0 0.0e+00 0.0e+00 0.0e+00  5  7  0  0  0   5  7  0  0  0  1782
MatSolve             200 1.0 8.7476e-02 1.0 1.43e+08 1.0 0.0e+00 0.0e+00 0.0e+00 67 90  0  0  0  67 90  0  0  0  1632
MatCholFctrSym         1 1.0 1.8098e-02 1.0 0.00e+00 0.0 0.0e+00 0.0e+00 0.0e+00 14  0  0  0  0  14  0  0  0  0     0
MatCholFctrNum         1 1.0 7.3105e-03 1.0 4.03e+03 1.0 0.0e+00 0.0e+00 0.0e+00  6  0  0  0  0   6  0  0  0  0     1
MatAssemblyBegin       1 1.0 1.6000e-07 1.0 0.00e+00 0.0 0.0e+00 0.0e+00 0.0e+00  0  0  0  0  0   0  0  0  0  0     0
MatAssemblyEnd         1 1.0 1.1113e-04 1.0 0.00e+00 0.0 0.0e+00 0.0e+00 0.0e+00  0  0  0  0  0   0  0  0  0  0     0
MatGetRowIJ            1 1.0 1.1698e-04 1.0 0.00e+00 0.0 0.0e+00 0.0e+00 0.0e+00  0  0  0  0  0   0  0  0  0  0     0
MatGetOrdering         1 1.0 1.4438e-03 1.0 0.00e+00 0.0 0.0e+00 0.0e+00 0.0e+00  1  0  0  0  0   1  0  0  0  0     0
MatLoad                1 1.0 4.4235e-03 1.0 0.00e+00 0.0 0.0e+00 0.0e+00 0.0e+00  3  0  0  0  0   3  0  0  0  0     0
MatView                2 1.0 2.8779e-04 1.0 0.00e+00 0.0 0.0e+00 0.0e+00 0.0e+00  0  0  0  0  0   0  0  0  0  0     0
VecMDot              100 1.0 2.3318e-04 1.0 8.06e+05 1.0 0.0e+00 0.0e+00 0.0e+00  0  1  0  0  0   0  1  0  0  0  3456
VecNorm              200 1.0 2.3033e-04 1.0 1.61e+06 1.0 0.0e+00 0.0e+00 0.0e+00  0  1  0  0  0   0  1  0  0  0  6998
VecScale             200 1.0 1.7918e-04 1.0 8.06e+05 1.0 0.0e+00 0.0e+00 0.0e+00  0  1  0  0  0   0  1  0  0  0  4498
VecCopy              100 1.0 3.0278e-04 1.0 0.00e+00 0.0 0.0e+00 0.0e+00 0.0e+00  0  0  0  0  0   0  0  0  0  0     0
VecSet               210 1.0 3.8665e-04 1.0 0.00e+00 0.0 0.0e+00 0.0e+00 0.0e+00  0  0  0  0  0   0  0  0  0  0     0
VecAXPY              100 1.0 1.8126e-04 1.0 8.06e+05 1.0 0.0e+00 0.0e+00 0.0e+00  0  1  0  0  0   0  1  0  0  0  4447
VecMAXPY             200 1.0 3.3037e-04 1.0 1.61e+06 1.0 0.0e+00 0.0e+00 0.0e+00  0  1  0  0  0   0  1  0  0  0  4879
VecNormalize         200 1.0 4.7475e-04 1.0 2.42e+06 1.0 0.0e+00 0.0e+00 0.0e+00  0  2  0  0  0   0  2  0  0  0  5093
KSPSetUp               1 1.0 1.1465e-04 1.0 0.00e+00 0.0 0.0e+00 0.0e+00 0.0e+00  0  0  0  0  0   0  0  0  0  0     0
KSPSolve             100 1.0 9.5603e-02 1.0 1.59e+08 1.0 0.0e+00 0.0e+00 0.0e+00 73100  0  0  0  73100  0  0  0  1662
KSPGMRESOrthog       100 1.0 4.5380e-04 1.0 1.61e+06 1.0 0.0e+00 0.0e+00 0.0e+00  0  1  0  0  0   0  1  0  0  0  3552
PCSetUp                1 1.0 2.8855e-02 1.0 4.03e+03 1.0 0.0e+00 0.0e+00 0.0e+00 22  0  0  0  0  22  0  0  0  0     0
PCApply              200 1.0 8.7540e-02 1.0 1.43e+08 1.0 0.0e+00 0.0e+00 0.0e+00 67 90  0  0  0  67 90  0  0  0  1630
------------------------------------------------------------------------------------------------------------------------

Memory usage is given in bytes:

Object Type          Creations   Destructions     Memory  Descendants' Mem.
Reports information only for process 0.

--- Event Stage 0: Main Stage

              Viewer     3              2         1696     0.
              Matrix     2              2      2922616     0.
              Vector     8              8       270528     0.
       Krylov Solver     1              1        18672     0.
      Preconditioner     1              1         1000     0.
           Index Set     5              5        69000     0.
========================================================================================================================
Average time to get PetscTime(): 2.56e-08
#PETSc Option Table entries:
-f /scratch/project/dd-21-16/ex1_jakub/slope120_s8_5.bin
-iter 100
-log_view
-pc_factor_mat_ordering_type nd
-pc_factor_mat_solver_type petsc
-pc_type cholesky
#End of PETSc Option Table entries
Compiled without FORTRAN kernels
Compiled with full precision matrices (default)
sizeof(short) 2 sizeof(int) 4 sizeof(long) 8 sizeof(void*) 8 sizeof(PetscScalar) 8 sizeof(PetscInt) 4
Configure options: --prefix=/home/hrb33u/.local/easybuild/software/PETSc/3.14.4-foss-2020b-download-superlu --LIBS="-lm -lpthread -lrt" --with-mpi4py=0 --download-superlu_dist=1 --download-superlu=1 --download-superlu-shared=0 --download-superlu_dist-shared=0 --with-cc=mpicc --with-cxx=mpicxx --with-c++-support --with-fc=mpifort --CFLAGS="-O2 -ftree-vectorize -march=native -fno-math-errno -fopenmp -fPIC" --CXXFLAGS="-O2 -ftree-vectorize -march=native -fno-math-errno -fopenmp -fPIC -DOMPI_SKIP_MPICXX -DMPICH_SKIP_MPICXX" --FFLAGS="-O2 -ftree-vectorize -march=native -fno-math-errno -fopenmp -fPIC" --with-mpi=1 --with-build-step-np=48 --with-shared-libraries=1 --with-debugging=0 --with-pic=1 --with-x=0 --with-windows-graphics=0 --with-numpy=1 --with-fftw=1 --with-fftw-lib="[/apps/all/FFTW/3.3.8-gompi-2020b/lib/libfftw3_mpi.a,libfftw3.a]" --with-fftw-include=/apps/all/FFTW/3.3.8-gompi-2020b/include --with-scalapack=1 --with-scalapack-lib="[/apps/all/ScaLAPACK/2.1.0-gompi-2020b/lib/libscalapack.a,libopenblas.a,libgfortran.a]" --with-blaslapack-lib="[/apps/all/OpenBLAS/0.3.12-GCC-10.2.0/lib/libopenblas.a,libgfortran.a]" --with-python=1 --with-python-dir=/apps/all/Python/3.8.6-GCCcore-10.2.0 --with-boost=1 --with-boost-dir=/home/hrb33u/.local/easybuild/software/Boost/1.74.0-GCC-10.2.0 --with-metis=1 --with-metis-dir=/home/hrb33u/.local/easybuild/software/METIS/5.1.0-GCCcore-10.2.0 --with-ptscotch=1 --with-ptscotch-dir=/home/hrb33u/.local/easybuild/software/SCOTCH/6.1.0-gompi-2020b --with-mumps=1 --with-mumps-dir=/home/hrb33u/.local/easybuild/software/MUMPS/5.3.5-foss-2020b-metis --with-hypre=1 --with-hypre-dir=/home/hrb33u/.local/easybuild/software/Hypre/2.20.0-foss-2020b --with-superlu=1 --with-superlu-dir=/home/hrb33u/.local/easybuild/software/SuperLU/5.2.2-foss-2020b --with-suitesparse=1 --with-suitesparse-include="[/home/hrb33u/.local/easybuild/software/SuiteSparse/5.8.1-foss-2020b-METIS-5.1.0/UMFPACK/Include,/home/hrb33u/.local/easybuild/software/SuiteSparse/5.8.1-foss-2020b-METIS-5.1.0/KLU/Include,/home/hrb33u/.local/easybuild/software/SuiteSparse/5.8.1-foss-2020b-METIS-5.1.0/CHOLMOD/Include,/home/hrb33u/.local/easybuild/software/SuiteSparse/5.8.1-foss-2020b-METIS-5.1.0/BTF/Include,/home/hrb33u/.local/easybuild/software/SuiteSparse/5.8.1-foss-2020b-METIS-5.1.0/CCOLAMD/Include,/home/hrb33u/.local/easybuild/software/SuiteSparse/5.8.1-foss-2020b-METIS-5.1.0/COLAMD/Include,/home/hrb33u/.local/easybuild/software/SuiteSparse/5.8.1-foss-2020b-METIS-5.1.0/CAMD/Include,/home/hrb33u/.local/easybuild/software/SuiteSparse/5.8.1-foss-2020b-METIS-5.1.0/AMD/Include,/home/hrb33u/.local/easybuild/software/SuiteSparse/5.8.1-foss-2020b-METIS-5.1.0/SuiteSparse_config]" --with-suitesparse-lib="[/home/hrb33u/.local/easybuild/software/SuiteSparse/5.8.1-foss-2020b-METIS-5.1.0/UMFPACK/Lib/libumfpack.a,/home/hrb33u/.local/easybuild/software/SuiteSparse/5.8.1-foss-2020b-METIS-5.1.0/KLU/Lib/libklu.a,/home/hrb33u/.local/easybuild/software/SuiteSparse/5.8.1-foss-2020b-METIS-5.1.0/CHOLMOD/Lib/libcholmod.a,/home/hrb33u/.local/easybuild/software/SuiteSparse/5.8.1-foss-2020b-METIS-5.1.0/BTF/Lib/libbtf.a,/home/hrb33u/.local/easybuild/software/SuiteSparse/5.8.1-foss-2020b-METIS-5.1.0/CCOLAMD/Lib/libccolamd.a,/home/hrb33u/.local/easybuild/software/SuiteSparse/5.8.1-foss-2020b-METIS-5.1.0/COLAMD/Lib/libcolamd.a,/home/hrb33u/.local/easybuild/software/SuiteSparse/5.8.1-foss-2020b-METIS-5.1.0/CAMD/Lib/libcamd.a,/home/hrb33u/.local/easybuild/software/SuiteSparse/5.8.1-foss-2020b-METIS-5.1.0/AMD/Lib/libamd.a,/home/hrb33u/.local/easybuild/software/SuiteSparse/5.8.1-foss-2020b-METIS-5.1.0/SuiteSparse_config/libsuitesparseconfig.a]"
-----------------------------------------
Libraries compiled on 2021-09-12 09:18:04 on login1.barbora.it4i.cz 
Machine characteristics: Linux-3.10.0-1160.6.1.el7.x86_64-x86_64-with-glibc2.2.5
Using PETSc directory: /home/hrb33u/.local/easybuild/software/PETSc/3.14.4-foss-2020b-download-superlu
Using PETSc arch: 
-----------------------------------------

Using C compiler: mpicc -O2 -ftree-vectorize -march=native -fno-math-errno -fopenmp -fPIC   
Using Fortran compiler: mpifort -O2 -ftree-vectorize -march=native -fno-math-errno -fopenmp -fPIC     
-----------------------------------------

Using include paths: -I/home/hrb33u/.local/easybuild/software/PETSc/3.14.4-foss-2020b-download-superlu/include -I/home/hrb33u/.local/easybuild/software/Hypre/2.20.0-foss-2020b/include -I/home/hrb33u/.local/easybuild/software/MUMPS/5.3.5-foss-2020b-metis/include -I/home/hrb33u/.local/easybuild/software/SuiteSparse/5.8.1-foss-2020b-METIS-5.1.0/UMFPACK/Include -I/home/hrb33u/.local/easybuild/software/SuiteSparse/5.8.1-foss-2020b-METIS-5.1.0/KLU/Include -I/home/hrb33u/.local/easybuild/software/SuiteSparse/5.8.1-foss-2020b-METIS-5.1.0/CHOLMOD/Include -I/home/hrb33u/.local/easybuild/software/SuiteSparse/5.8.1-foss-2020b-METIS-5.1.0/BTF/Include -I/home/hrb33u/.local/easybuild/software/SuiteSparse/5.8.1-foss-2020b-METIS-5.1.0/CCOLAMD/Include -I/home/hrb33u/.local/easybuild/software/SuiteSparse/5.8.1-foss-2020b-METIS-5.1.0/COLAMD/Include -I/home/hrb33u/.local/easybuild/software/SuiteSparse/5.8.1-foss-2020b-METIS-5.1.0/CAMD/Include -I/home/hrb33u/.local/easybuild/software/SuiteSparse/5.8.1-foss-2020b-METIS-5.1.0/AMD/Include -I/home/hrb33u/.local/easybuild/software/SuiteSparse/5.8.1-foss-2020b-METIS-5.1.0/SuiteSparse_config -I/apps/all/FFTW/3.3.8-gompi-2020b/include -I/home/hrb33u/.local/easybuild/software/SCOTCH/6.1.0-gompi-2020b/include -I/home/hrb33u/.local/easybuild/software/METIS/5.1.0-GCCcore-10.2.0/include -I/home/hrb33u/.local/easybuild/software/Boost/1.74.0-GCC-10.2.0/include
-----------------------------------------

Using C linker: mpicc
Using Fortran linker: mpifort
Using libraries: -Wl,-rpath,/home/hrb33u/.local/easybuild/software/PETSc/3.14.4-foss-2020b-download-superlu/lib -L/home/hrb33u/.local/easybuild/software/PETSc/3.14.4-foss-2020b-download-superlu/lib -lpetsc -Wl,-rpath,/home/hrb33u/.local/easybuild/software/Hypre/2.20.0-foss-2020b/lib -L/home/hrb33u/.local/easybuild/software/Hypre/2.20.0-foss-2020b/lib -Wl,-rpath,/home/hrb33u/.local/easybuild/software/MUMPS/5.3.5-foss-2020b-metis/lib -L/home/hrb33u/.local/easybuild/software/MUMPS/5.3.5-foss-2020b-metis/lib -Wl,-rpath,/apps/all/ScaLAPACK/2.1.0-gompi-2020b/lib -L/apps/all/ScaLAPACK/2.1.0-gompi-2020b/lib -Wl,-rpath,/home/hrb33u/.local/easybuild/software/SuiteSparse/5.8.1-foss-2020b-METIS-5.1.0/UMFPACK/Lib -L/home/hrb33u/.local/easybuild/software/SuiteSparse/5.8.1-foss-2020b-METIS-5.1.0/UMFPACK/Lib -Wl,-rpath,/home/hrb33u/.local/easybuild/software/SuiteSparse/5.8.1-foss-2020b-METIS-5.1.0/KLU/Lib -L/home/hrb33u/.local/easybuild/software/SuiteSparse/5.8.1-foss-2020b-METIS-5.1.0/KLU/Lib -Wl,-rpath,/home/hrb33u/.local/easybuild/software/SuiteSparse/5.8.1-foss-2020b-METIS-5.1.0/CHOLMOD/Lib -L/home/hrb33u/.local/easybuild/software/SuiteSparse/5.8.1-foss-2020b-METIS-5.1.0/CHOLMOD/Lib -Wl,-rpath,/home/hrb33u/.local/easybuild/software/SuiteSparse/5.8.1-foss-2020b-METIS-5.1.0/BTF/Lib -L/home/hrb33u/.local/easybuild/software/SuiteSparse/5.8.1-foss-2020b-METIS-5.1.0/BTF/Lib -Wl,-rpath,/home/hrb33u/.local/easybuild/software/SuiteSparse/5.8.1-foss-2020b-METIS-5.1.0/CCOLAMD/Lib -L/home/hrb33u/.local/easybuild/software/SuiteSparse/5.8.1-foss-2020b-METIS-5.1.0/CCOLAMD/Lib -Wl,-rpath,/home/hrb33u/.local/easybuild/software/SuiteSparse/5.8.1-foss-2020b-METIS-5.1.0/COLAMD/Lib -L/home/hrb33u/.local/easybuild/software/SuiteSparse/5.8.1-foss-2020b-METIS-5.1.0/COLAMD/Lib -Wl,-rpath,/home/hrb33u/.local/easybuild/software/SuiteSparse/5.8.1-foss-2020b-METIS-5.1.0/CAMD/Lib -L/home/hrb33u/.local/easybuild/software/SuiteSparse/5.8.1-foss-2020b-METIS-5.1.0/CAMD/Lib -Wl,-rpath,/home/hrb33u/.local/easybuild/software/SuiteSparse/5.8.1-foss-2020b-METIS-5.1.0/AMD/Lib -L/home/hrb33u/.local/easybuild/software/SuiteSparse/5.8.1-foss-2020b-METIS-5.1.0/AMD/Lib -Wl,-rpath,/home/hrb33u/.local/easybuild/software/SuiteSparse/5.8.1-foss-2020b-METIS-5.1.0/SuiteSparse_config -L/home/hrb33u/.local/easybuild/software/SuiteSparse/5.8.1-foss-2020b-METIS-5.1.0/SuiteSparse_config -Wl,-rpath,/home/hrb33u/.local/easybuild/software/PETSc/3.14.4-foss-2020b-download-superlu/lib -L/home/hrb33u/.local/easybuild/software/PETSc/3.14.4-foss-2020b-download-superlu/lib -Wl,-rpath,/apps/all/FFTW/3.3.8-gompi-2020b/lib -L/apps/all/FFTW/3.3.8-gompi-2020b/lib -Wl,-rpath,/apps/all/OpenBLAS/0.3.12-GCC-10.2.0/lib -L/apps/all/OpenBLAS/0.3.12-GCC-10.2.0/lib -Wl,-rpath,/home/hrb33u/.local/easybuild/software/SCOTCH/6.1.0-gompi-2020b/lib -L/home/hrb33u/.local/easybuild/software/SCOTCH/6.1.0-gompi-2020b/lib -Wl,-rpath,/home/hrb33u/.local/easybuild/software/METIS/5.1.0-GCCcore-10.2.0/lib -L/home/hrb33u/.local/easybuild/software/METIS/5.1.0-GCCcore-10.2.0/lib -Wl,-rpath,/apps/all/hwloc/2.2.0-GCCcore-10.2.0/lib -L/apps/all/hwloc/2.2.0-GCCcore-10.2.0/lib -Wl,-rpath,/apps/all/OpenMPI/4.0.5-GCC-10.2.0/lib -L/apps/all/OpenMPI/4.0.5-GCC-10.2.0/lib -Wl,-rpath,/home/hrb33u/.local/easybuild/software/SuperLU/5.2.2-foss-2020b/lib64 -L/home/hrb33u/.local/easybuild/software/SuperLU/5.2.2-foss-2020b/lib64 -Wl,-rpath,/home/hrb33u/.local/easybuild/software/Hypre/2.20.0-foss-2020b/lib64 -L/home/hrb33u/.local/easybuild/software/Hypre/2.20.0-foss-2020b/lib64 -Wl,-rpath,/home/hrb33u/.local/easybuild/software/SuiteSparse/5.8.1-foss-2020b-METIS-5.1.0/lib64 -L/home/hrb33u/.local/easybuild/software/SuiteSparse/5.8.1-foss-2020b-METIS-5.1.0/lib64 -Wl,-rpath,/home/hrb33u/.local/easybuild/software/MPFR/4.1.0-GCCcore-10.2.0/lib64 -L/home/hrb33u/.local/easybuild/software/MPFR/4.1.0-GCCcore-10.2.0/lib64 -Wl,-rpath,/home/hrb33u/.local/easybuild/software/MUMPS/5.3.5-foss-2020b-metis/lib64 -L/home/hrb33u/.local/easybuild/software/MUMPS/5.3.5-foss-2020b-metis/lib64 -Wl,-rpath,/home/hrb33u/.local/easybuild/software/SCOTCH/6.1.0-gompi-2020b/lib64 -L/home/hrb33u/.local/easybuild/software/SCOTCH/6.1.0-gompi-2020b/lib64 -Wl,-rpath,/home/hrb33u/.local/easybuild/software/METIS/5.1.0-GCCcore-10.2.0/lib64 -L/home/hrb33u/.local/easybuild/software/METIS/5.1.0-GCCcore-10.2.0/lib64 -Wl,-rpath,/home/hrb33u/.local/easybuild/software/Boost/1.74.0-GCC-10.2.0/lib64 -L/home/hrb33u/.local/easybuild/software/Boost/1.74.0-GCC-10.2.0/lib64 -Wl,-rpath,/home/hrb33u/.local/easybuild/software/SciPy-bundle/2020.11-foss-2020b/lib64 -L/home/hrb33u/.local/easybuild/software/SciPy-bundle/2020.11-foss-2020b/lib64 -Wl,-rpath,/apps/all/Python/3.8.6-GCCcore-10.2.0/lib64 -L/apps/all/Python/3.8.6-GCCcore-10.2.0/lib64 -Wl,-rpath,/apps/all/libffi/3.3-GCCcore-10.2.0/lib64 -L/apps/all/libffi/3.3-GCCcore-10.2.0/lib64 -Wl,-rpath,/apps/all/GMP/6.2.0-GCCcore-10.2.0/lib64 -L/apps/all/GMP/6.2.0-GCCcore-10.2.0/lib64 -Wl,-rpath,/apps/all/SQLite/3.33.0-GCCcore-10.2.0/lib64 -L/apps/all/SQLite/3.33.0-GCCcore-10.2.0/lib64 -Wl,-rpath,/apps/all/Tcl/8.6.10-GCCcore-10.2.0/lib64 -L/apps/all/Tcl/8.6.10-GCCcore-10.2.0/lib64 -Wl,-rpath,/apps/all/libreadline/8.0-GCCcore-10.2.0/lib64 -L/apps/all/libreadline/8.0-GCCcore-10.2.0/lib64 -Wl,-rpath,/apps/all/libarchive/3.4.3-GCCcore-10.2.0/lib64 -L/apps/all/libarchive/3.4.3-GCCcore-10.2.0/lib64 -Wl,-rpath,/apps/all/cURL/7.72.0-GCCcore-10.2.0/lib64 -L/apps/all/cURL/7.72.0-GCCcore-10.2.0/lib64 -Wl,-rpath,/apps/all/bzip2/1.0.8-GCCcore-10.2.0/lib64 -L/apps/all/bzip2/1.0.8-GCCcore-10.2.0/lib64 -Wl,-rpath,/apps/all/ncurses/6.2-GCCcore-10.2.0/lib64 -L/apps/all/ncurses/6.2-GCCcore-10.2.0/lib64 -Wl,-rpath,/apps/all/ScaLAPACK/2.1.0-gompi-2020b/lib64 -L/apps/all/ScaLAPACK/2.1.0-gompi-2020b/lib64 -Wl,-rpath,/apps/all/FFTW/3.3.8-gompi-2020b/lib64 -L/apps/all/FFTW/3.3.8-gompi-2020b/lib64 -Wl,-rpath,/apps/all/OpenBLAS/0.3.12-GCC-10.2.0/lib64 -L/apps/all/OpenBLAS/0.3.12-GCC-10.2.0/lib64 -Wl,-rpath,/apps/all/OpenMPI/4.0.5-GCC-10.2.0/lib64 -L/apps/all/OpenMPI/4.0.5-GCC-10.2.0/lib64 -Wl,-rpath,/apps/all/PMIx/3.1.5-GCCcore-10.2.0/lib64 -L/apps/all/PMIx/3.1.5-GCCcore-10.2.0/lib64 -Wl,-rpath,/apps/all/libevent/2.1.12-GCCcore-10.2.0/lib64 -L/apps/all/libevent/2.1.12-GCCcore-10.2.0/lib64 -Wl,-rpath,/apps/all/libfabric/1.11.0-GCCcore-10.2.0/lib64 -L/apps/all/libfabric/1.11.0-GCCcore-10.2.0/lib64 -Wl,-rpath,/apps/all/UCX/1.9.0-GCCcore-10.2.0/lib64 -L/apps/all/UCX/1.9.0-GCCcore-10.2.0/lib64 -Wl,-rpath,/apps/all/hwloc/2.2.0-GCCcore-10.2.0/lib64 -L/apps/all/hwloc/2.2.0-GCCcore-10.2.0/lib64 -Wl,-rpath,/apps/all/libpciaccess/0.16-GCCcore-10.2.0/lib64 -L/apps/all/libpciaccess/0.16-GCCcore-10.2.0/lib64 -Wl,-rpath,/apps/all/libxml2/2.9.10-GCCcore-10.2.0/lib64 -L/apps/all/libxml2/2.9.10-GCCcore-10.2.0/lib64 -Wl,-rpath,/apps/all/XZ/5.2.5-GCCcore-10.2.0/lib64 -L/apps/all/XZ/5.2.5-GCCcore-10.2.0/lib64 -Wl,-rpath,/apps/all/numactl/2.0.13-GCCcore-10.2.0/lib64 -L/apps/all/numactl/2.0.13-GCCcore-10.2.0/lib64 -Wl,-rpath,/apps/all/binutils/2.35-GCCcore-10.2.0/lib64 -L/apps/all/binutils/2.35-GCCcore-10.2.0/lib64 -Wl,-rpath,/apps/all/zlib/1.2.11-GCCcore-10.2.0/lib64 -L/apps/all/zlib/1.2.11-GCCcore-10.2.0/lib64 -Wl,-rpath,/apps/all/GCCcore/10.2.0/lib/gcc/x86_64-pc-linux-gnu/10.2.0 -L/apps/all/GCCcore/10.2.0/lib/gcc/x86_64-pc-linux-gnu/10.2.0 -Wl,-rpath,/apps/all/GCCcore/10.2.0/lib64 -L/apps/all/GCCcore/10.2.0/lib64 -Wl,-rpath,/home/hrb33u/.local/easybuild/software/SuperLU/5.2.2-foss-2020b/lib -L/home/hrb33u/.local/easybuild/software/SuperLU/5.2.2-foss-2020b/lib -Wl,-rpath,/home/hrb33u/.local/easybuild/software/SuiteSparse/5.8.1-foss-2020b-METIS-5.1.0/lib -L/home/hrb33u/.local/easybuild/software/SuiteSparse/5.8.1-foss-2020b-METIS-5.1.0/lib -Wl,-rpath,/home/hrb33u/.local/easybuild/software/MPFR/4.1.0-GCCcore-10.2.0/lib -L/home/hrb33u/.local/easybuild/software/MPFR/4.1.0-GCCcore-10.2.0/lib -Wl,-rpath,/home/hrb33u/.local/easybuild/software/Boost/1.74.0-GCC-10.2.0/lib -L/home/hrb33u/.local/easybuild/software/Boost/1.74.0-GCC-10.2.0/lib -Wl,-rpath,/home/hrb33u/.local/easybuild/software/SciPy-bundle/2020.11-foss-2020b/lib/python3.8/site-packages/numpy/core/lib -L/home/hrb33u/.local/easybuild/software/SciPy-bundle/2020.11-foss-2020b/lib/python3.8/site-packages/numpy/core/lib -Wl,-rpath,/home/hrb33u/.local/easybuild/software/SciPy-bundle/2020.11-foss-2020b/lib -L/home/hrb33u/.local/easybuild/software/SciPy-bundle/2020.11-foss-2020b/lib -Wl,-rpath,/apps/all/Python/3.8.6-GCCcore-10.2.0/lib -L/apps/all/Python/3.8.6-GCCcore-10.2.0/lib -Wl,-rpath,/apps/all/libffi/3.3-GCCcore-10.2.0/lib -L/apps/all/libffi/3.3-GCCcore-10.2.0/lib -Wl,-rpath,/apps/all/GMP/6.2.0-GCCcore-10.2.0/lib -L/apps/all/GMP/6.2.0-GCCcore-10.2.0/lib -Wl,-rpath,/apps/all/SQLite/3.33.0-GCCcore-10.2.0/lib -L/apps/all/SQLite/3.33.0-GCCcore-10.2.0/lib -Wl,-rpath,/apps/all/Tcl/8.6.10-GCCcore-10.2.0/lib -L/apps/all/Tcl/8.6.10-GCCcore-10.2.0/lib -Wl,-rpath,/apps/all/libreadline/8.0-GCCcore-10.2.0/lib -L/apps/all/libreadline/8.0-GCCcore-10.2.0/lib -Wl,-rpath,/apps/all/libarchive/3.4.3-GCCcore-10.2.0/lib -L/apps/all/libarchive/3.4.3-GCCcore-10.2.0/lib -Wl,-rpath,/apps/all/cURL/7.72.0-GCCcore-10.2.0/lib -L/apps/all/cURL/7.72.0-GCCcore-10.2.0/lib -Wl,-rpath,/apps/all/bzip2/1.0.8-GCCcore-10.2.0/lib -L/apps/all/bzip2/1.0.8-GCCcore-10.2.0/lib -Wl,-rpath,/apps/all/ncurses/6.2-GCCcore-10.2.0/lib -L/apps/all/ncurses/6.2-GCCcore-10.2.0/lib -Wl,-rpath,/apps/all/PMIx/3.1.5-GCCcore-10.2.0/lib -L/apps/all/PMIx/3.1.5-GCCcore-10.2.0/lib -Wl,-rpath,/apps/all/libevent/2.1.12-GCCcore-10.2.0/lib -L/apps/all/libevent/2.1.12-GCCcore-10.2.0/lib -Wl,-rpath,/apps/all/libfabric/1.11.0-GCCcore-10.2.0/lib -L/apps/all/libfabric/1.11.0-GCCcore-10.2.0/lib -Wl,-rpath,/apps/all/UCX/1.9.0-GCCcore-10.2.0/lib -L/apps/all/UCX/1.9.0-GCCcore-10.2.0/lib -Wl,-rpath,/apps/all/libpciaccess/0.16-GCCcore-10.2.0/lib -L/apps/all/libpciaccess/0.16-GCCcore-10.2.0/lib -Wl,-rpath,/apps/all/libxml2/2.9.10-GCCcore-10.2.0/lib -L/apps/all/libxml2/2.9.10-GCCcore-10.2.0/lib -Wl,-rpath,/apps/all/XZ/5.2.5-GCCcore-10.2.0/lib -L/apps/all/XZ/5.2.5-GCCcore-10.2.0/lib -Wl,-rpath,/apps/all/numactl/2.0.13-GCCcore-10.2.0/lib -L/apps/all/numactl/2.0.13-GCCcore-10.2.0/lib -Wl,-rpath,/apps/all/binutils/2.35-GCCcore-10.2.0/lib -L/apps/all/binutils/2.35-GCCcore-10.2.0/lib -Wl,-rpath,/apps/all/zlib/1.2.11-GCCcore-10.2.0/lib -L/apps/all/zlib/1.2.11-GCCcore-10.2.0/lib -Wl,-rpath,/apps/all/GCCcore/10.2.0/lib -L/apps/all/GCCcore/10.2.0/lib -lHYPRE -lcmumps -ldmumps -lsmumps -lzmumps -lmumps_common -lpord -lscalapack -lopenblas -lgfortran -lumfpack -lklu -lcholmod -lbtf -lccolamd -lcolamd -lcamd -lamd -lsuitesparseconfig -lsuperlu -lsuperlu_dist -lfftw3_mpi -lfftw3 -lopenblas -lgfortran -lptesmumps -lptscotchparmetis -lptscotch -lptscotcherr -lesmumps -lscotch -lscotcherr -lmetis -lstdc++ -ldl -lgfortran -lm -lpthread -lrt -lmpi_usempif08 -lmpi_usempi_ignore_tkr -lmpi_mpifh -lmpi -lgfortran -lm -lgfortran -lgomp -lgcc_s -lquadmath -lstdc++ -ldl -lm -lpthread -lrt
-----------------------------------------

